Check for IP addresses that come from a specified country. — check_ip • excluder
…
# Check for IP addresses outside of Germany
qualtrics_text %>%
  exclude_preview() %>%
  check_ip(country = "DE")

#> 2 out of 100 preview rows were excluded, leaving 98 rows.
#> 94 out of 98 rows have IP addresses outside of DE.
#> # A tibble: 94 x 16
#> # Rowwise: 
#>    StartDate           EndDate             Status IPAddress Progress
#>    <dttm>              <dttm>              <chr>  <chr>        <dbl>
#>  1 2020-12-11 12:17:22 2020-12-11 12:21:41 IP Ad… 73.23.43…      100
#>  2 2020-12-11 12:17:41 2020-12-11 12:22:07 IP Ad… 16.140.1…      100
#>  3 2020-12-11 12:19:45 2020-12-11 12:23:16 IP Ad… 107.57.2…      100
#>  4 2020-12-11 12:37:51 2020-12-11 12:43:09 IP Ad… 15.232.1…      100
#>  5 2020-12-11 12:41:23 2020-12-11 12:44:37 IP Ad… 24.195.9…      100
#>  6 2020-12-11 12:37:04 2020-12-11 12:45:50 IP Ad… 98.75.20…      100
#>  7 2020-12-11 12:55:35 2020-12-11 12:59:24 IP Ad… 51.113.1…      100
#>  8 2020-12-11 13:22:34 2020-12-11 13:35:19 IP Ad… 17.163.1…      100
#>  9 2020-12-11 17:02:00 2020-12-11 17:03:30 IP Ad… 70.203.6…      100
#> 10 2020-12-11 17:01:32 2020-12-11 17:09:41 IP Ad… 33.185.8…      100
#> # … with 84 more rows, and 11 more variables: `Duration (in seconds)` <dbl>,
#> #   Finished <lgl>, RecordedDate <dttm>, ResponseId <chr>,
#> #   LocationLatitude <dbl>, LocationLongitude <dbl>, UserLanguage <chr>,
#> #   Browser <chr>, Version <chr>, `Operating System` <chr>, Resolution <chr>
…
